{
    "$id": "https://gitlab.com/mr-engineering/mep_schemas/raw/master/ProtoSquareDiffGrid.json",
    "$schema": "http://json-schema.org/draft-07/schema#",
    "description": "A prototypical square diffuser grid",
    "title": "ProtoSquareDiffGrid",
    "x-namespace": "Elements.Mechanical",
    "type": ["object", "null"],
    "allOf": [{"$ref": "https://hypar.io/Schemas/GeometricElement.json"}],
    "required": ["Size"],
    "properties": {
        "Size": {
            "description": "Size of the diffusers in inches",
            "type":"number",
            "minimum": 6,
            "maximum": 36,
            "default": 12
        }
    },
    "additionalProperties": false
}