{
    "$id": "https://gitlab.com/mr-engineering/mep_schemas/raw/master/ThermalZone.json",
    "$schema": "http://json-schema.org/draft-07/schema#",
    "description": "A zone comprized of rooms.",
    "title": "ThermalZone",
    "x-namespace": "Elements.Mechanical",
    "type": ["object", "null"],
    "allOf": [{"$ref": "https://hypar.io/Schemas/GeometricElement.json"}],
    "required": ["WallRValue", "WindowUValue", "WindowSHGCValue"],
    "properties": {
        "OutsideAir": {
            "description": "Outside air required.",
            "type":"number",
            "minimum": 1,
            "maximum": 100,
            "default": 10
        },
        "SensibleHeatingLoad": {
            "description": "The zone's peak sensible heating load per SqFt",
            "type":"number",
            "minimum": 0.01,
            "maximum": 1,
            "default": 0.5
        },
        "SensibleCoolingLoad": {
            "description": "The zone's peak sensible cooling load per SqFt",
            "type":"number",
            "minimum": 0.01,
            "maximum": 1,
            "default": 0.5
        },
        "LatentCoolingLoad": {
            "description": "The zone's peak latent cooling load per SqFt",
            "type":"number",
            "minimum": 0.01,
            "maximum": 1,
            "default": 0.5
        },
        "Rooms": {
            "description": "The rooms guids contained within the zone",
            "type":"array",
            "items": {
                "type": "string",
                "format": "guid"
            }
        }
    },
    "additionalProperties": false
}